{
  "rulesDirectory": ["./node_modules/tslint-eslint-rules/dist/rules"],
  "rules": {
    "one-variable-per-declaration":[true,"ignore-for-loop"],
    "quotemark":[true,"single","jsx-double","avoid-escape"],
    "semicolon":[true,"always","ignore-interfaces"],
    "variable-name":[true,"check-format","allow-pascal-case","ban-keywords","allow-leading-underscore"],
    "only-arrow-functions": [true, "allow-declarations", "allow-named-functions"],
    "no-conditional-assignment": true,
    "no-empty":true,
    "no-constant-condition":true,
    "no-trailing-whitespace": true,
    "whitespace":[true,"check-branch","check-decl","check-module","check-type"],
    "no-duplicate-case":true,
    "no-duplicate-variable":true,
    "no-eval":true,
    "no-shadowed-variable":true,
    "brace-style": [
      true,
      "1tbs",
      {
        "allowSingleLine": true
      }
    ],
    "use-isnan":true,
    "no-unsafe-finally":true,
    "no-unused-expression":true,
    "no-unused-new":true,
    "no-use-before-declare":true,
    "switch-default":true,
    "no-consecutive-blank-lines": [true],
    "linebreak-style": [true],
    "max-file-line-count": [true,500],
    "max-line-length":[true,80],
    "indent": [
      true,
      "spaces"
    ],
    "comment-format": [ true, "check-space" ],
    "class-name": true,
    "no-console": [
      false
    ],
    "no-var-keyword": true,
    "arrow-parens": false,
    "triple-equals": [
      true,
      "allow-null-check"
    ],
    "no-string-throw":true,
    "prefer-const":true,
    "space-before-function-paren": [true, { "named": "never" }],
    "object-literal-key-quotes": [true, "as-needed"],
    "no-construct":true
  }
}
